{
  "type": "service_account",
  "project_id": "custom-segment-poc",
  "private_key_id": "17ed8721e5ec5ae67f1dd8157adf76f5644bf16f",
  "private_key": "-----BEGIN PRIVATE KEY-----\nMIIEvQIBADANBgkqhkiG9w0BAQEFAASCBKcwggSjAgEAAoIBAQCuHHdhYCrPcVe7\nRON8XR4HGOJ9/5eQWbnfBDJ8K+8MimiRsRMEZ41c8qpT9MWsOLmAjgvYrr3HCTnm\nXukxkUuvaCbJqo1vvMLzdwCYzXvhT+PNeDrbA+tdufyAH+ZmJhSdxakuu++5HU6b\nnHoiyjr4bc+VttbzBkvHE1yFOi8Vp13uRHLZ/wjFE+VpsAXhlsYP6oUoS56AcCQA\nMhZM2B74OwELPtbcResw5L0NAiNUaL2+pl6mOaFzRY9PeVAnedhsSbov45rFE3Ud\nCMcVuDM5rSZH7RFLOhMAqjWsefBwjmf2w0A5Vs65Ih/l4UGURjKxDk/ZfG2mO7yn\nO81Ec38VAgMBAAECggEAIpKhe/MCHTYG8zcvKtM8srEUzGsz1+SRPYESW0jIC4fy\nUrfELHQ5hFLlUo2AsP2EjEvoe0rbgUnKNv3ytTaCPl7ikNnugtkLJxgixLTM3AUm\nmXa9zR6ennpfcrui3vbB0kBdI1wLMolowgqU0BKzGgCIH1TyoshFxM6J6SSQE+7X\nKJi/9zq5guAa4DAQkUs2YIb9dXYrTiRtcY3HiPLUEPzW3gm1KitrTZ8nfDV8YtXU\ndZ06mqcYkcM0uHEwkp5QCYfNxt2RfgnKaSJC9h+qXPh0kwG1Hkt+2aUzb6qgsR2g\npLlHn0ckXRpWiLjxWEwCjyqymkrOc95ZbA5gLxyoEwKBgQDrOuGMtMEE7ld3NqIu\noqSI6QfNgq7arkJCXd3VWX95ACUzN5XYVCv/S9keDHCbSsSFut/vGf4Eh+5y3pKJ\nRs1/ShRQLPQ11g1xIn2TqpjrrnyG1EoHcPccbqfsBD8Mpw5yvRvIFypyXvXyn4IU\nUunlPyEw2wVfKl/6KNX6j+aOmwKBgQC9fA+bZw+ECdnk3UGfO6VMfcJeA1EciPm/\nzIBRJVhVUWg962mWesqk8oB1ytXXEq0sbdoffE32Y8koviykKRj2oTkn0nTzD5g1\nRySFh/fvm5SGjsTIe54wS3Hk/64cW9AgJHCHW79nv00+Gl3CUvhBEWQrg+5Datsi\nZWEMQ/OsDwKBgEIEd3K+9AEHR0Ls8V13Rggqpob1607yYyQvJegPwyfZc5dJPWPG\nU8bFqby2LxBWTotdpCV9vP3WjIRulN+0IE5eIw9RXoSRe5pJ3MaJtXtHsClDATfP\na3ruT3B8zJkndXWcP2TLo50Pq6UZQS+lCYHOUulcPsizotYZidxVcJaLAoGBAIDJ\n0dHOOr2D9JWZzQBtiexzjahYmMjMUPQMCyscNu3GZxOu7hVZYGK8cJOfSbjk+M85\n2weLdXICYLdQiwcI5+65ph9q7BJIhyuvLyOTRvGUzV6nqxiY7OvmW4NKRQ0BWnR+\nT/2wXmglnlqXkSKDQjj3mR36jfdEqay3Oz8a8IQBAoGAJN6+O3B/Zhq1AAVN6J4m\nIWsvJoF0kWQVQx4C5/qHR57A4nwwJB/KgMJzfwaJ6fIDvA7JkZtQSwp9290//1eY\nrElN3NPDHGFP6uG1sc4Ecs4/6t0mziY35UShzFgzWH7pD4VDI8PV0rRrpiG908Db\nHSy1vShTFzm+y8tg0X9aTcU=\n-----END PRIVATE KEY-----\n",
  "client_email": "manage-api@custom-segment-poc.iam.gserviceaccount.com",
  "client_id": "111689607759308191428",
  "auth_uri": "https://accounts.google.com/o/oauth2/auth",
  "token_uri": "https://oauth2.googleapis.com/token",
  "auth_provider_x509_cert_url": "https://www.googleapis.com/oauth2/v1/certs",
  "client_x509_cert_url": "https://www.googleapis.com/robot/v1/metadata/x509/manage-api%40custom-segment-poc.iam.gserviceaccount.com"
}
